<?xml version="1.0" encoding="UTF-8" standalone="no"?>
<!-- Created with Inkscape (http://www.inkscape.org/) -->

<svg
   width="500"
   height="500"
   viewBox="0 0 132.29167 132.29167"
   version="1.1"
   id="svg5"
   xmlns:inkscape="http://www.inkscape.org/namespaces/inkscape"
   xmlns:sodipodi="http://sodipodi.sourceforge.net/DTD/sodipodi-0.dtd"
   xmlns="http://www.w3.org/2000/svg"
   xmlns:svg="http://www.w3.org/2000/svg">
  <sodipodi:namedview
     id="namedview7"
     pagecolor="#ffffff"
     bordercolor="#000000"
     borderopacity="0.25"
     inkscape:showpageshadow="2"
     inkscape:pageopacity="0.0"
     inkscape:pagecheckerboard="0"
     inkscape:deskcolor="#d1d1d1"
     inkscape:document-units="mm"
     showgrid="false" />
  <defs
     id="defs2" />
  <g
     inkscape:label="Layer 1"
     inkscape:groupmode="layer"
     id="layer1">
    <rect
       style="font-size:65.3706px;line-height:0.9;font-family:'Noto Sans';-inkscape-font-specification:'Noto Sans, Normal';text-align:end;text-anchor:end;fill:#000000;fill-opacity:1;stroke:none;stroke-width:2.46231;stroke-linejoin:round;paint-order:stroke fill markers"
       id="rect1172"
       width="132.29167"
       height="132.29167"
       x="0"
       y="0" />
    <g
       aria-label="連結
結連"
       id="text1019"
       style="font-size:65.3706px;line-height:0.9;font-family:'Noto Sans';-inkscape-font-specification:'Noto Sans, Normal';text-align:end;text-anchor:end;fill:#474747;stroke-width:0.441197;stroke-linejoin:round;paint-order:stroke fill markers">
      <path
         d="m 39.264318,54.07024 q -1.634265,0 -1.634265,-1.503524 0,-0.326853 0,-1.568895 0.06537,-1.242041 0.130741,-2.810935 0.06537,-1.568895 0.06537,-2.876307 h -8.628919 q 0,0 -1.1113,0 -1.04593,0 -2.680195,0.06537 -1.634265,0.06537 -3.399271,0.261482 l -0.784447,-2.810935 q 3.26853,0.392223 5.556501,0.457594 2.353341,0.06537 2.353341,0.06537 h 8.69429 v -6.406318 h -6.275578 v 0.980559 q 0,0.653706 -0.980559,1.176671 -0.915188,0.522964 -2.287971,0.849817 -1.372782,0.261483 -2.745565,0.261483 -1.699635,0 -1.699635,-1.568895 0,-0.588335 0.130741,-2.549453 0.130741,-2.026488 0.196112,-4.837424 0.130741,-2.810936 0.130741,-5.817983 0,-3.856866 -0.130741,-5.752613 -0.130741,-1.961118 -0.392224,-3.007047 -0.06537,-0.392224 0.196112,-0.653706 0.196112,-0.196112 0.653706,-0.130742 0.653706,0.130742 2.026488,0.653706 1.438154,0.457595 2.941677,1.04593 1.568895,0.522965 2.614824,0.980559 h 5.621872 v -5.752613 q -1.176671,0 -2.287971,0 -1.04593,0 -1.895748,0 -1.372782,0 -2.287971,0 -0.849817,0 -1.045929,0 0,0 -1.1113,0 -1.04593,0 -2.680195,0.06537 -1.634265,0.06537 -3.3339,0.261482 l -0.784447,-2.876306 q 3.268529,0.457594 5.5565,0.522965 2.353342,0.06537 2.353342,0.06537 h 7.517619 V 7.983968 q 0,-2.2879709 -0.392224,-3.1377886 -0.326853,-0.5229648 0,-0.8498178 0.196112,-0.1961118 0.588335,-0.1961118 0.849818,0 2.484083,0.1961118 1.634265,0.1961118 3.333901,0.4575942 1.699635,0.1961118 2.484082,0.3922236 0.457595,0.065371 0.588336,0.3922235 0.130741,0.326853 0.130741,0.653706 -0.06537,0.7844472 -0.980559,0.9151884 -1.176671,0.1961118 -1.176671,1.2420413 v 2.8109354 h 4.575942 q 0.653706,0 0.980559,-0.06537 0.326853,-0.130741 0.588335,-0.588336 0.522965,-0.6537056 1.372783,-1.8303764 0.849818,-1.2420413 1.242041,-1.6996355 0.522965,-0.7190766 1.503524,-0.1961118 0.849818,0.3922236 2.026489,1.307412 1.242041,0.8498177 2.353341,1.8303767 1.176671,0.915188 1.699636,1.568894 0.457594,0.522965 0.261482,1.111301 -0.196112,0.522964 -0.719076,0.522964 H 44.886189 v 5.752613 h 6.014095 q 0.522965,0 0.849818,-0.522965 0.261482,-0.392223 0.457594,-0.719076 0.196112,-0.392224 0.457594,-0.849818 0.392224,-0.588336 1.242042,-0.392224 0.784447,0.196112 2.091859,0.719077 1.307412,0.522965 2.614824,1.1113 1.307412,0.522965 1.961118,0.915188 0.588335,0.326853 0.522964,1.1113 0,0.784448 -0.784447,1.111301 -0.130741,0.06537 -0.261482,0.130741 -0.130741,0.06537 -0.261482,0.196112 -0.588336,0.522964 -0.588336,1.634265 0,2.026488 0.06537,4.314459 0.06537,2.2226 0.130741,4.249089 0.130741,1.961118 0.196112,3.3339 0.06537,1.372783 0.06537,1.568895 0,0.719076 -0.980559,1.242041 -0.915188,0.522965 -2.353341,0.784447 -1.372783,0.261483 -2.810936,0.261483 -1.634265,0 -1.634265,-1.568895 v -0.261482 h -6.994654 v 6.406318 h 6.667801 q 1.04593,0 1.503524,-0.588335 0.522965,-0.653706 1.372783,-1.830377 0.915188,-1.242041 1.242041,-1.699635 0.588335,-0.784447 1.503524,-0.261483 0.849817,0.457595 2.026488,1.307412 1.242042,0.849818 2.353342,1.830377 1.17667,0.915188 1.699635,1.568894 0.457594,0.522965 0.261483,1.111301 -0.130742,0.522964 -0.653706,0.522964 H 44.95156 q 0,1.830377 0.06537,3.856866 0.130742,1.961118 0.130742,2.680194 0,0.653706 -0.915189,1.176671 -0.915188,0.457594 -2.287971,0.784447 Q 40.6371,54.07024 39.264318,54.07024 Z M 9.2592134,62.8299 Q 8.5401368,63.222123 8.1479132,62.568417 7.6903191,61.78397 6.7751307,60.280446 5.8599423,58.776923 5.0101245,57.208028 4.1603068,55.573763 3.7680832,54.658575 q 0,-0.06537 0,-0.130741 Q 3.637342,54.200981 3.7027126,54.07024 3.8334538,53.808757 4.1603068,53.743387 l 1.5688943,-0.392224 6.6678009,-1.765006 v -19.61118 q -0.196112,0 -0.457594,0 -0.196112,0 -0.522965,0 -0.588335,0 -1.307412,0 -0.7190764,-0.06537 -1.1766706,0 0,0 -1.4381531,0.06537 -1.4381532,0 -3.2685299,0.261482 L 3.4412302,29.490895 q 2.3533415,0.392223 3.9222359,0.457594 1.5688943,0.06537 1.5688943,0.06537 h 2.8109356 q 0.457594,0 0.719077,-0.392224 0.588335,-0.980559 1.438153,-2.15723 0.326853,-0.522965 1.1113,-0.261482 0.784447,0.261482 1.961118,0.849818 1.176671,0.588335 2.353341,1.242041 1.242042,0.653706 1.895748,1.1113 0.588335,0.392224 0.522965,1.176671 0,0.719076 -0.719077,1.045929 -0.196112,0.06537 -0.392224,0.196112 -0.130741,0.06537 -0.261482,0.196112 -0.784447,0.588335 -0.784447,1.765006 v 14.643014 q 0,1.830377 1.242041,3.072418 1.242042,1.242042 4.249089,1.895748 3.072418,0.588335 8.432807,0.588335 5.621872,0 11.309114,-0.130741 5.687242,-0.196112 10.655407,-0.522965 4.968166,-0.326853 8.498178,-0.784447 -0.719077,0.784447 -1.438153,2.2226 -0.719077,1.438153 -1.242042,3.072418 -0.522964,1.699636 -0.653706,3.203159 H 34.165411 q -5.164277,0 -8.498178,-1.568894 -3.268529,-1.503524 -5.033536,-3.791495 -1.699635,-2.353341 -2.28797,-4.706683 -1.111301,1.176671 -2.745566,2.941677 -1.568894,1.699636 -3.007047,3.26853 -1.438153,1.568895 -2.091859,2.287971 -0.7190768,0.784447 -0.7190768,1.372783 0,0.719076 -0.5229648,0.980559 z M 16.842203,19.685305 Q 15.40405,20.077529 14.096638,19.554564 12.854596,18.966228 12.527743,17.331964 11.874037,13.998063 10.697367,11.317869 9.5860664,8.5723034 6.7097601,6.6765561 6.5136483,5.6306265 7.3634661,5.4345147 q 2.0918591,0.2614824 4.3798299,0.8498178 2.287971,0.5883354 4.249089,1.634265 2.026489,1.0459295 3.26853,2.7455655 1.242041,1.699635 1.242041,4.183718 0,2.026488 -1.1113,3.26853 -1.1113,1.242041 -2.549453,1.568894 z m 28.043986,15.29672 h 6.994654 v -6.340948 h -6.994654 z m 0,-8.302066 h 6.994654 v -6.144836 h -6.994654 z m -13.335602,8.302066 h 6.275578 v -6.340948 h -6.275578 z m 0,-8.302066 h 6.275578 v -6.144836 h -6.275578 z"
         style="font-weight:900;font-family:'Zen Old Mincho';-inkscape-font-specification:'Zen Old Mincho Heavy';fill:#800000"
         id="path1179" />
      <path
         d="m 100.25509,62.045452 q -1.634269,0 -1.634269,-1.503523 0,-0.326853 0.06537,-2.549454 0.130741,-2.2226 0.196112,-5.752612 0.130741,-3.530012 0.130741,-7.844472 0,-3.464642 -0.196112,-6.014095 -0.130741,-2.549453 -0.392223,-3.26853 -0.130741,-0.326853 0.130741,-0.653706 0.261482,-0.130741 0.588335,-0.06537 0.653706,0.130741 2.026485,0.588335 1.43816,0.457594 3.00705,1.1113 1.63427,0.588335 2.74557,1.1113 h 10.59003 q 0.52297,0 0.84982,-0.392223 0.32685,-0.392224 0.78445,-1.1113 0.45759,-0.719077 0.71907,-1.111301 0.4576,-0.653706 1.37279,-0.326853 0.71907,0.196112 2.02649,0.849818 1.37278,0.588336 2.68019,1.307412 1.37278,0.653706 2.02649,1.04593 0.58833,0.392223 0.52296,1.17667 0,0.784448 -0.71907,1.111301 -0.26149,0.06537 -0.65371,0.326853 -0.98056,0.653706 -0.98056,2.157229 0,1.568895 0.13074,4.183719 0.13074,2.549453 0.26149,5.229647 0.13074,2.680195 0.26148,4.706683 0.13074,1.961118 0.13074,2.353342 0,0.653706 -1.1113,1.176671 -1.1113,0.588335 -2.6802,0.849818 -1.50352,0.326852 -2.94167,0.326852 -1.63427,0 -1.63427,-1.503523 v -2.287971 h -12.35504 v 2.549453 q 0,1.04593 -1.96112,1.634265 -1.89575,0.588335 -3.9876,0.588335 z M 81.166871,62.89527 q -1.568894,0 -1.568894,-1.438153 0,-0.261482 0.06537,-2.2226 0.06537,-1.961118 0.130741,-4.641313 0.130742,-2.745565 0.196112,-5.425759 0.06537,-2.745565 0.06537,-4.510572 V 44.33002 q -0.653706,0 -0.915189,0.849818 -1.242041,2.941677 -2.941676,5.752613 -1.699636,2.810936 -3.464642,5.098906 -1.765006,2.222601 -3.26853,3.660754 -0.980559,0.130741 -1.1113,-0.849818 0.719076,-1.438153 1.372782,-3.595383 0.653706,-2.157229 1.111301,-4.510571 0.457594,-2.418712 0.719076,-4.641312 0.261483,-2.222601 0.261483,-3.856866 0,-0.392223 0,-0.719076 0,-0.392224 -0.06537,-0.653706 -0.06537,-0.392224 0.130741,-0.588336 0.130741,-0.261482 0.588336,-0.130741 1.307411,0.261483 3.595382,0.980559 2.353342,0.653706 3.987607,1.372783 v -7.256137 l -5.164277,1.372783 q -0.653706,0.196112 -0.849818,0.457594 -0.130741,0.261482 -0.130741,0.784447 0,0.588336 -0.588336,0.849818 -0.588335,0.261482 -0.784447,-0.261482 -0.392223,-0.915189 -0.980559,-2.353342 -0.522965,-1.438153 -1.045929,-2.941677 -0.522965,-1.503524 -0.849818,-2.484083 -0.130741,-0.457594 0.130741,-0.653705 0.130741,-0.06537 0.653706,-0.06537 0.326853,0 0.849818,0.06537 0.522965,0 1.176671,0 1.307411,0.06537 3.072418,0.130741 1.765006,0 3.660753,0.130741 1.307412,-2.2226 2.614824,-5.098907 1.307412,-2.876306 2.353342,-5.883354 1.045929,-3.007047 1.503523,-5.49113 0.130741,-0.522965 0.196112,-0.980559 0.06537,-0.522964 0.130741,-0.980559 0,-0.522964 0.326853,-0.653706 0.196112,-0.196111 0.784447,-0.06537 0.980559,0.326853 2.680195,1.045929 1.765006,0.719077 3.464642,1.503524 1.765006,0.719077 2.745565,1.307412 0.588335,0.261482 0.326853,1.04593 -0.261483,0.653706 -0.915189,0.653706 -0.653706,-0.06537 -1.1113,0.130741 -0.392223,0.196112 -0.915188,0.915188 -2.745565,3.399271 -6.014095,6.798542 -3.203159,3.333901 -5.948725,5.817984 2.418713,0.06537 4.641313,0.130741 2.287971,0.06537 3.856865,0.130741 -0.326853,-1.242041 -0.849818,-2.353342 -0.457594,-1.1113 -1.17667,-1.961118 -0.130742,-1.045929 0.849817,-1.045929 3.464642,1.1113 6.144837,3.137789 2.745565,1.961118 3.007047,5.033536 0.196112,2.353341 -0.915188,3.595382 -1.1113,1.242042 -2.614824,1.568895 -1.438153,0.261482 -2.484083,-0.326853 -0.980559,-0.588336 -1.1113,-1.895747 -0.06537,-1.04593 -0.196112,-2.026489 -0.06537,-0.980559 -0.261482,-1.895747 l -3.333901,0.915188 v 11.309113 q 0,2.15723 0.06537,4.772054 0.06537,2.614824 0.06537,5.098907 0.06537,2.418712 0.130742,4.118347 0.06537,1.765007 0.06537,2.15723 0,0.653706 -0.980559,1.1113 -0.980559,0.457594 -2.418712,0.719077 -1.438153,0.261482 -2.745564,0.261482 z M 99.078415,31.059789 98.293968,28.183483 q 1.634265,0.261482 3.137792,0.392223 1.56889,0.06537 2.61482,0.130742 1.04593,0 1.04593,0 h 3.07242 v -12.02819 h -4.4452 q 0,0 -1.04593,0 -1.04593,0 -2.48408,0.06537 -1.372788,0.06537 -2.549458,0.261483 l -0.784447,-2.810936 q 1.634264,0.261482 3.137788,0.392223 1.568897,0.06537 2.614827,0.130742 1.04593,0 1.04593,0 h 4.51057 V 8.8337858 q 0,-1.6342649 -0.19611,-2.6801945 -0.13075,-1.0459296 -0.32686,-1.3074119 -0.26148,-0.4575942 -0.0654,-0.7190766 0.13074,-0.3922236 0.65371,-0.3922236 1.1113,0 2.81093,0.1961118 1.69964,0.1961118 3.39928,0.4575942 1.69963,0.1961118 2.74556,0.4575942 0.84982,0.1961117 0.71908,1.1113001 -0.0654,0.7844472 -0.91519,0.9151884 -1.30741,0.065371 -1.30741,1.4381531 v 6.406319 h 2.41871 q 0.6537,0 0.91519,-0.06537 0.32685,-0.130741 0.6537,-0.588335 0.4576,-0.522965 1.30742,-1.699636 0.91518,-1.176671 1.24204,-1.634265 0.58833,-0.719076 1.56889,-0.326853 0.84982,0.392224 1.96112,1.242042 1.17667,0.784447 2.2226,1.765006 1.1113,0.915188 1.63426,1.634265 0.4576,0.522964 0.26149,1.1113 -0.13074,0.522965 -0.65371,0.522965 h -13.53171 v 12.02819 h 1.83037 q 1.04593,0 1.5689,-0.588336 0.45759,-0.522965 1.17667,-1.503524 0.78445,-0.980559 1.1113,-1.438153 0.58833,-0.719076 1.56889,-0.326853 1.24204,0.522965 2.81094,1.830377 1.56889,1.307412 2.41871,2.353342 0.4576,0.588335 0.26148,1.1113 -0.13074,0.522964 -0.6537,0.522964 -0.32686,0 -1.17667,0 -0.84982,0 -2.09186,0 -2.28797,0 -5.42576,0 -3.13779,0 -6.21021,0 -3.07242,0 -5.22965,0 -2.15723,0 -2.54945,0 0,0 -1.04593,0 -0.98056,0 -2.41871,0.130742 -1.37278,0.06537 -2.549455,0.261482 z m 7.125395,24.252492 h 12.35504 q 0,-2.091859 0,-4.641313 0,-2.614823 0,-5.033536 0.0654,-2.484082 0.0654,-4.249088 0.0654,-1.765007 0.0654,-2.222601 H 106.20381 Z M 78.552047,25.960882 q -1.307412,0.457595 -2.353341,0.06537 -1.04593,-0.457594 -1.372783,-1.634265 -0.784447,-3.072418 -2.026488,-5.42576 -1.242042,-2.353341 -3.20316,-3.987606 -0.196112,-1.04593 0.653706,-1.242041 1.634265,0.326853 3.137789,0.784447 1.568894,0.392223 2.876306,1.045929 0.653706,-1.961118 1.1113,-4.641312 0.457595,-2.6801946 0.653706,-4.9027949 0.06537,-0.5229648 0.06537,-0.9151884 0.06537,-0.4575941 0.06537,-0.8498177 0.130741,-0.5229648 0.261482,-0.5883354 0.196112,-0.1307412 0.588335,0 1.1113,0.326853 2.941677,0.980559 1.830377,0.6537059 3.595383,1.3727825 1.765006,0.653706 2.614824,1.1113002 0.588335,0.2614824 0.326853,0.9805589 -0.261482,0.653706 -0.784447,0.653706 -1.176671,0 -1.961118,0.8498178 -1.699636,1.895747 -3.791495,3.791495 -2.091859,1.830376 -3.791494,3.137788 2.549453,1.634265 3.137788,3.922236 0.522965,2.026489 -0.392223,3.530013 -0.849818,1.438153 -2.353342,1.961117 z M 93.914138,56.35821 q -1.176671,0.130742 -2.222601,-0.457594 -1.045929,-0.653706 -1.17667,-2.091859 -0.261483,-4.249089 -0.849818,-7.321507 -0.522965,-3.137789 -2.026489,-5.883354 0,-0.457594 0.261483,-0.719076 0.326853,-0.261483 0.719076,-0.196112 3.791495,2.026489 6.340948,5.098907 2.614824,3.007047 2.876306,6.863912 0.130742,2.026489 -1.17667,3.26853 -1.242042,1.242042 -2.745565,1.438153 z"
         style="font-weight:900;font-family:'Zen Old Mincho';-inkscape-font-specification:'Zen Old Mincho Heavy';fill:#806600"
         id="path1181" />
      <path
         d="m 34.884488,127.09736 q -1.634265,0 -1.634265,-1.50353 0,-0.32685 0.06537,-2.54945 0.130742,-2.2226 0.196112,-5.75261 0.130741,-3.53002 0.130741,-7.84448 0,-3.46464 -0.196111,-6.01409 -0.130742,-2.54945 -0.392224,-3.26853 -0.130741,-0.326854 0.130741,-0.653707 0.261483,-0.130741 0.588336,-0.06537 0.653706,0.130741 2.026488,0.588337 1.438153,0.45759 3.007048,1.1113 1.634265,0.58833 2.745565,1.1113 h 10.590037 q 0.522964,0 0.849817,-0.39223 0.326853,-0.39222 0.784448,-1.1113 0.457594,-0.71907 0.719076,-1.111295 0.457594,-0.653706 1.372783,-0.326853 0.719076,0.196112 2.026488,0.849818 1.372783,0.58833 2.680195,1.30741 1.372782,0.65371 2.026488,1.04593 0.588336,0.39222 0.522965,1.17667 0,0.78445 -0.719077,1.1113 -0.261482,0.0654 -0.653706,0.32685 -0.980558,0.65371 -0.980558,2.15723 0,1.5689 0.130741,4.18372 0.130741,2.54946 0.261482,5.22965 0.130741,2.68019 0.261482,4.70668 0.130742,1.96112 0.130742,2.35334 0,0.65371 -1.1113,1.17668 -1.111301,0.58833 -2.680195,0.84981 -1.503524,0.32686 -2.941677,0.32686 -1.634265,0 -1.634265,-1.50353 V 122.3253 H 40.833212 v 2.54945 q 0,1.04593 -1.961118,1.63427 -1.895747,0.58834 -3.987606,0.58834 z m -19.088215,0.84981 q -1.568894,0 -1.568894,-1.43815 0,-0.26148 0.06537,-2.2226 0.06537,-1.96112 0.130742,-4.64131 0.130741,-2.74557 0.196111,-5.42576 0.06537,-2.74557 0.06537,-4.51057 v -0.32686 q -0.653706,0 -0.915188,0.84982 -1.242042,2.94168 -2.941677,5.75261 -1.6996358,2.81094 -3.4646419,5.09891 -1.7650062,2.2226 -3.2685299,3.66075 -0.980559,0.13074 -1.1113002,-0.84981 0.7190766,-1.43816 1.3727826,-3.59539 0.6537059,-2.15723 1.1113001,-4.51057 0.4575942,-2.41871 0.7190766,-4.64131 0.2614824,-2.2226 0.2614824,-3.85687 0,-0.39222 0,-0.71907 0,-0.39223 -0.065371,-0.65371 -0.065371,-0.39222 0.1307412,-0.58833 0.1307412,-0.26149 0.5883354,-0.13075 1.3074119,0.26149 3.5953837,0.98056 2.353341,0.65371 3.987606,1.37279 v -7.25614 l -5.1642776,1.37278 q -0.653706,0.19611 -0.8498178,0.4576 -0.1307412,0.26148 -0.1307412,0.78444 0,0.58834 -0.5883353,0.84982 -0.5883354,0.26148 -0.7844472,-0.26148 -0.3922236,-0.91519 -0.980559,-2.35334 Q 5.6638305,99.707075 5.1408657,98.203551 4.617901,96.700027 4.291048,95.719468 4.1603068,95.261874 4.4217892,95.065762 q 0.1307412,-0.06537 0.6537059,-0.06537 0.326853,0 0.8498178,0.06537 0.5229648,0 1.1766708,0 1.3074119,0.06537 3.0724183,0.130741 1.765006,0 3.660753,0.130742 1.307412,-2.222601 2.614824,-5.098907 1.307412,-2.876306 2.353342,-5.883354 1.045929,-3.007047 1.503523,-5.49113 0.130742,-0.522965 0.196112,-0.980559 0.06537,-0.522965 0.130741,-0.980559 0,-0.522965 0.326853,-0.653706 0.196112,-0.196112 0.784448,-0.06537 0.980559,0.326853 2.680194,1.04593 1.765006,0.719077 3.464642,1.503524 1.765006,0.719076 2.745565,1.307412 0.588335,0.261482 0.326853,1.045929 -0.261482,0.653706 -0.915188,0.653706 -0.653706,-0.06537 -1.111301,0.130741 -0.392223,0.196112 -0.915188,0.915189 -2.745565,3.399271 -6.014095,6.798542 -3.203159,3.3339 -5.948724,5.817983 2.418712,0.06537 4.641312,0.130741 2.287971,0.06537 3.856865,0.130742 -0.326853,-1.242042 -0.849817,-2.353342 -0.457595,-1.1113 -1.176671,-1.961118 -0.130741,-1.04593 0.849818,-1.04593 3.464641,1.111301 6.144836,3.137789 2.745565,1.961118 3.007047,5.033536 0.196112,2.353336 -0.915188,3.595386 -1.1113,1.24204 -2.614824,1.56889 -1.438153,0.26148 -2.484083,-0.32685 -0.980559,-0.58834 -1.1113,-1.89575 -0.06537,-1.04593 -0.196112,-2.026487 -0.06537,-0.980559 -0.261482,-1.895748 l -3.333901,0.915189 v 11.309116 q 0,2.15723 0.06537,4.77205 0.06537,2.61482 0.06537,5.09891 0.06537,2.41871 0.130741,4.11834 0.06537,1.76501 0.06537,2.15723 0,0.65371 -0.980559,1.1113 -0.980559,0.4576 -2.418712,0.71908 -1.438153,0.26148 -2.745565,0.26148 z M 33.707817,96.111692 32.92337,93.235385 q 1.634265,0.261483 3.137789,0.392224 1.568894,0.06537 2.614823,0.130741 1.04593,0 1.04593,0 H 42.79433 V 81.73016 h -4.445201 q 0,0 -1.045929,0 -1.04593,0 -2.484083,0.06537 -1.372782,0.06537 -2.549453,0.261482 l -0.784447,-2.810936 q 1.634265,0.261483 3.137788,0.392224 1.568895,0.06537 2.614824,0.130741 1.04593,0 1.04593,0 h 4.510571 v -5.883354 q 0,-1.634265 -0.196112,-2.680194 -0.130741,-1.04593 -0.326853,-1.307412 -0.261482,-0.457594 -0.06537,-0.719077 0.130741,-0.392223 0.653706,-0.392223 1.1113,0 2.810935,0.196112 1.699636,0.196111 3.399271,0.457594 1.699636,0.196112 2.745566,0.457594 0.849817,0.196112 0.719076,1.1113 -0.06537,0.784447 -0.915188,0.915189 -1.307412,0.06537 -1.307412,1.438153 v 6.406318 h 2.418712 q 0.653706,0 0.915188,-0.06537 0.326853,-0.130742 0.653706,-0.588336 0.457595,-0.522965 1.307412,-1.699635 0.915189,-1.176671 1.242042,-1.634265 0.588335,-0.719077 1.568894,-0.326853 0.849818,0.392223 1.961118,1.242041 1.176671,0.784447 2.2226,1.765006 1.1113,0.915189 1.634265,1.634265 0.457594,0.522965 0.261483,1.1113 -0.130742,0.522965 -0.653706,0.522965 H 50.311949 v 12.02819 h 1.830377 q 1.045929,0 1.568894,-0.588335 0.457594,-0.522965 1.176671,-1.503524 0.784447,-0.980559 1.1113,-1.438153 0.588335,-0.719077 1.568894,-0.326853 1.242042,0.522965 2.810936,1.830377 1.568894,1.307412 2.418712,2.353341 0.457594,0.588336 0.261482,1.1113 -0.130741,0.522965 -0.653706,0.522965 -0.326853,0 -1.17667,0 -0.849818,0 -2.091859,0 -2.287971,0 -5.42576,0 -3.137789,0 -6.210207,0 -3.072418,0 -5.229648,0 -2.157229,0 -2.549453,0 0,0 -1.04593,0 -0.980559,0 -2.418712,0.130741 -1.372782,0.06537 -2.549453,0.261483 z m 7.125395,24.252488 h 12.355043 q 0,-2.09186 0,-4.64131 0,-2.61482 0,-5.03353 0.06537,-2.48409 0.06537,-4.24909 0.06537,-1.76501 0.06537,-2.2226 H 40.833212 Z M 13.181449,91.012785 q -1.307412,0.457594 -2.353341,0.06537 Q 9.7821782,90.620561 9.4553252,89.443891 8.670878,86.371473 7.4288367,84.018131 6.1867953,81.66479 4.2256774,80.030525 q -0.1961118,-1.04593 0.653706,-1.242042 1.6342649,0.326853 3.1377887,0.784447 1.5688943,0.392224 2.8763059,1.04593 0.653706,-1.961118 1.111301,-4.641312 0.457594,-2.680195 0.653705,-4.902795 0.06537,-0.522965 0.06537,-0.915189 0.06537,-0.457594 0.06537,-0.849817 0.130741,-0.522965 0.261482,-0.588336 0.196112,-0.130741 0.588335,0 1.111301,0.326853 2.941677,0.980559 1.830377,0.653706 3.595383,1.372783 1.765006,0.653706 2.614824,1.1113 0.588336,0.261482 0.326853,0.980559 -0.261482,0.653706 -0.784447,0.653706 -1.176671,0 -1.961118,0.849818 -1.699636,1.895747 -3.791495,3.791494 -2.091859,1.830377 -3.791494,3.137789 2.549453,1.634265 3.137788,3.922236 0.522965,2.026488 -0.392223,3.530012 -0.849818,1.438153 -2.353342,1.961118 z M 28.54354,121.41011 q -1.176671,0.13074 -2.222601,-0.45759 -1.045929,-0.65371 -1.17667,-2.09186 -0.261483,-4.24909 -0.849818,-7.32151 -0.522965,-3.13779 -2.026489,-5.88335 0,-0.4576 0.261483,-0.71908 0.326853,-0.26148 0.719076,-0.19611 3.791495,2.02649 6.340948,5.09891 2.614824,3.00704 2.876307,6.86391 0.130741,2.02649 -1.176671,3.26853 -1.242041,1.24204 -2.745565,1.43815 z"
         style="font-weight:900;font-family:'Zen Old Mincho';-inkscape-font-specification:'Zen Old Mincho Heavy';fill:#806600"
         id="path1183" />
      <path
         d="m 104.63492,119.12214 q -1.63427,0 -1.63427,-1.50352 0,-0.32685 0,-1.5689 0.0654,-1.24204 0.13074,-2.81093 0.0654,-1.5689 0.0654,-2.87631 h -8.628916 q 0,0 -1.111301,0 -1.045929,0 -2.680194,0.0654 -1.634265,0.0654 -3.399271,0.26149 l -0.784447,-2.81094 q 3.26853,0.39222 5.5565,0.45759 2.353342,0.0654 2.353342,0.0654 h 8.694287 v -6.40631 h -6.275575 v 0.98055 q 0,0.65371 -0.980559,1.17668 -0.915188,0.52296 -2.287971,0.84981 -1.372782,0.26149 -2.745565,0.26149 -1.699635,0 -1.699635,-1.5689 0,-0.58833 0.130741,-2.54945 0.130741,-2.026491 0.196112,-4.837427 0.130741,-2.810935 0.130741,-5.817983 0,-3.856865 -0.130741,-5.752612 -0.130742,-1.961118 -0.392224,-3.007048 -0.06537,-0.392223 0.196112,-0.653706 0.196112,-0.196112 0.653706,-0.130741 0.653706,0.130741 2.026488,0.653706 1.438153,0.457594 2.941677,1.04593 1.568895,0.522964 2.614824,0.980559 h 5.621869 v -5.752613 q -1.17667,0 -2.28797,0 -1.045928,0 -1.895746,0 -1.372782,0 -2.287971,0 -0.849817,0 -1.045929,0 0,0 -1.1113,0 -1.04593,0 -2.680195,0.06537 -1.634265,0.06537 -3.3339,0.261482 l -0.784448,-2.876306 q 3.26853,0.457594 5.556501,0.522964 2.353342,0.06537 2.353342,0.06537 h 7.517616 v -2.876306 q 0,-2.287971 -0.39222,-3.137789 -0.32685,-0.522965 0,-0.849818 0.19611,-0.196112 0.58833,-0.196112 0.84982,0 2.48409,0.196112 1.63426,0.196112 3.3339,0.457594 1.69963,0.196112 2.48408,0.392224 0.45759,0.06537 0.58834,0.392224 0.13074,0.326853 0.13074,0.653706 -0.0654,0.784447 -0.98056,0.915188 -1.17667,0.196112 -1.17667,1.242041 v 2.810936 h 4.57594 q 0.6537,0 0.98056,-0.06537 0.32685,-0.130741 0.58833,-0.588335 0.52297,-0.653706 1.37279,-1.830377 0.84981,-1.242041 1.24204,-1.699635 0.52296,-0.719077 1.50352,-0.196112 0.84982,0.392224 2.02649,1.307412 1.24204,0.849818 2.35334,1.830377 1.17667,0.915188 1.69964,1.568894 0.45759,0.522965 0.26148,1.1113 -0.19611,0.522965 -0.71908,0.522965 h -15.88505 v 5.752613 h 6.01409 q 0.52297,0 0.84982,-0.522965 0.26148,-0.392224 0.45759,-0.719077 0.19612,-0.392223 0.4576,-0.849818 0.39222,-0.588335 1.24204,-0.392223 0.78445,0.196112 2.09186,0.719076 1.30741,0.522965 2.61482,1.111301 1.30741,0.522964 1.96112,0.915188 0.58834,0.326853 0.52297,1.1113 0,0.784447 -0.78445,1.1113 -0.13074,0.06537 -0.26148,0.130741 -0.13075,0.06537 -0.26149,0.196112 -0.58833,0.522965 -0.58833,1.634265 0,2.026489 0.0654,4.31446 0.0654,2.2226 0.13074,4.249088 0.13074,1.961118 0.19611,3.333901 0.0654,1.372784 0.0654,1.568894 0,0.71908 -0.98056,1.24204 -0.91519,0.52297 -2.35334,0.78445 -1.37278,0.26148 -2.81093,0.26148 -1.63427,0 -1.63427,-1.56889 v -0.26148 h -6.99465 v 6.40631 h 6.6678 q 1.04593,0 1.50352,-0.58833 0.52297,-0.65371 1.37278,-1.83038 0.91519,-1.24204 1.24205,-1.69963 0.58833,-0.78445 1.50352,-0.26149 0.84982,0.4576 2.02649,1.30742 1.24204,0.84981 2.35334,1.83037 1.17667,0.91519 1.69964,1.5689 0.45759,0.52296 0.26148,1.1113 -0.13074,0.52296 -0.65371,0.52296 h -17.91154 q 0,1.83038 0.0654,3.85687 0.13074,1.96112 0.13074,2.68019 0,0.65371 -0.91519,1.17667 -0.91519,0.4576 -2.28797,0.78445 -1.30741,0.26148 -2.68019,0.26148 z m -30.005109,8.75966 q -0.719076,0.39223 -1.1113,-0.26148 -0.457594,-0.78445 -1.372782,-2.28797 -0.915189,-1.50352 -1.765007,-3.07242 -0.849817,-1.63426 -1.242041,-2.54945 0,-0.0654 0,-0.13074 -0.130741,-0.32686 -0.06537,-0.4576 0.130742,-0.26148 0.457595,-0.32685 l 1.568894,-0.39222 6.667801,-1.76501 V 97.02688 q -0.196112,0 -0.457594,0 -0.196112,0 -0.522965,0 -0.588335,0 -1.307412,0 -0.719077,-0.06537 -1.176671,0 0,0 -1.438153,0.06537 -1.438153,0 -3.26853,0.261482 l -0.784447,-2.810936 q 2.353342,0.392224 3.922236,0.457595 1.568894,0.06537 1.568894,0.06537 h 2.810936 q 0.457594,0 0.719077,-0.392223 0.588335,-0.980559 1.438153,-2.15723 0.326853,-0.522965 1.1113,-0.261483 0.784447,0.261483 1.961118,0.849818 1.176671,0.588336 2.353341,1.242042 1.242042,0.653706 1.895748,1.1113 0.588335,0.392223 0.522964,1.17667 0,0.719077 -0.719076,1.04593 -0.196112,0.06537 -0.392224,0.196112 -0.130741,0.06537 -0.261482,0.196112 -0.784447,0.588335 -0.784447,1.765006 v 14.643015 q 0,1.83038 1.242041,3.07242 1.242041,1.24204 4.249089,1.89575 3.072418,0.58833 8.432807,0.58833 5.621866,0 11.309116,-0.13074 5.68724,-0.19611 10.6554,-0.52297 4.96817,-0.32685 8.49818,-0.78444 -0.71907,0.78444 -1.43815,2.2226 -0.71908,1.43815 -1.24204,3.07242 -0.52297,1.69963 -0.65371,3.20316 H 99.536009 q -5.164277,0 -8.498178,-1.5689 -3.26853,-1.50352 -5.033536,-3.79149 -1.699635,-2.35335 -2.287971,-4.70669 -1.1113,1.17667 -2.745565,2.94168 -1.568894,1.69964 -3.007047,3.26853 -1.438153,1.56889 -2.091859,2.28797 -0.719077,0.78445 -0.719077,1.37278 0,0.71908 -0.522965,0.98056 z m 7.58299,-43.144592 q -1.438154,0.392223 -2.745566,-0.130742 -1.242041,-0.588335 -1.568894,-2.2226 -0.653706,-3.3339 -1.830377,-6.014095 -1.1113,-2.745565 -3.987606,-4.641312 -0.196112,-1.04593 0.653706,-1.242042 2.091859,0.261483 4.37983,0.849818 2.287971,0.588336 4.249089,1.634265 2.026488,1.04593 3.26853,2.745565 1.242041,1.699636 1.242041,4.183718 0,2.026489 -1.1113,3.26853 -1.1113,1.242042 -2.549453,1.568895 z m 28.043989,15.296722 h 6.99465 v -6.34095 h -6.99465 z m 0,-8.302068 h 6.99465 v -6.144837 h -6.99465 z m -13.335605,8.302068 h 6.275575 v -6.34095 h -6.275575 z m 0,-8.302068 h 6.275575 v -6.144837 h -6.275575 z"
         style="font-weight:900;font-family:'Zen Old Mincho';-inkscape-font-specification:'Zen Old Mincho Heavy';fill:#800000"
         id="path1185" />
    </g>
  </g>
</svg>
